INDEX VERSION 1.131+E:\Prueba_Ingeneo\backend\.metadata\.plugins\org.eclipse.jdt.core
519851222.index
676136466.index
2838581657.index
225351763.index
638486603.index
2183742914.index
3951636576.index
203625054.index
1967636147.index
733030266.index
2275900598.index
1388984856.index
3328841075.index
1696903664.index
1899323795.index
2276338259.index
1621589116.index
2932828482.index
1436438837.index
3822697467.index
3446227964.index
1234959858.index
1315698953.index
1085516348.index
3230277625.index
3716041518.index
1755561353.index
1251219258.index
1108817264.index
2980250797.index
295971025.index
3924659770.index
1455769663.index
3684499264.index
3869289339.index
1609666063.index
2548582623.index
3688209974.index
4025993791.index
2414227869.index
39365500.index
4017083877.index
2528813620.index
2827180734.index
2032773181.index
2508556195.index
1104039707.index
3045844565.index
1875883293.index
3428385169.index
652248131.index
3954171656.index
596620471.index
1832619920.index
3795424745.index
1947030939.index
4167695976.index
1811629046.index
156273015.index
3961420575.index
4109284282.index
1567726728.index
2475603840.index
1271918490.index
286553174.index
1341283532.index
3179002407.index
1669385097.index
772140051.index
874955620.index
3078835010.index
2037546750.index
2414332437.index
1808293422.index
3786474913.index
454541394.index
1130264488.index
2640052030.index
3143978917.index
801063552.index
47236814.index
3205404331.index
2449096822.index
2309071128.index
3637015181.index
61717509.index
1224332996.index
1038715656.index
3776277591.index
2512792598.index
2698729316.index
2688888069.index
4194995091.index
3145653779.index
3396258916.index
2205115191.index
3640304685.index
32557502.index
3592706469.index
1844257901.index
1757631584.index
828565524.index
1169798771.index
210090.index
4276549856.index
4271175759.index
4234125757.index
713221642.index
203842940.index
1934191153.index
3444807730.index
3784943694.index
3824488897.index
3662232974.index
3863558541.index
4247789567.index
2317429651.index
2777064448.index
2282236654.index
2399886466.index
890450632.index
3537035512.index
2783758944.index
263432186.index
2110358198.index
3665225670.index
655557352.index
1735661284.index
4193554242.index
3840206534.index
585643340.index
3128150033.index
1353522344.index
3832736297.index
347604914.index
1478919903.index
2379949820.index
2815158890.index
971171031.index
402663464.index
828113718.index
2382226383.index
3561718901.index
1004169900.index
3515185782.index
3283232125.index
2195735518.index
7588953.index
504174936.index
3493345856.index
3670644781.index
3863275681.index
4057915402.index
660831447.index
130638676.index
584586182.index
2386542327.index
1403654567.index
512271424.index
